[
    {
        "name": "SentinelProviderDefault",
        "value": 147,
        "type": "data"
    },
    {
        "name": "image_converter",
        "value": 1.23,
        "type": "service"
    },
    {
        "name": "CPU",
        "value": 123,
        "type": "computing"
    },
    {
        "name": "Memory",
        "value": 123,
        "type": "computing"
    },
    {
        "name": "NetworkTransmitted",
        "value": 123,
        "type": "computing"
    },
    {
        "name": "NetworkReceived",
        "value": 123,
        "type": "computing"
    },
    {
        "name": "provider-minio",
        "value": 4.78,
        "type": "storage"
    }
]
